{
  "project_info": {
    "project_number": "1082766953555",
    "firebase_url": "https://loginer-1db0d.firebaseio.com",
    "project_id": "loginer-1db0d",
    "storage_bucket": "loginer-1db0d.appspot.com"
  },
  "client": [
    {
      "client_info": {
        "mobilesdk_app_id": "1:1082766953555:android:6cc06d3566849210e04aa6",
        "android_client_info": {
          "package_name": "com.example.loginscreen"
        }
      },
      "oauth_client": [
        {
          "client_id": "1082766953555-cd3c3lraeon30oemo9c8pko5c5r3qmra.apps.googleusercontent.com",
          "client_type": 3
        }
      ],
      "api_key": [
        {
          "current_key": "AIzaSyAFfAfx4jYVLAUmU6YsLZJKunc-KmbZFqo"
        }
      ],
      "services": {
        "appinvite_service": {
          "other_platform_oauth_client": [
            {
              "client_id": "1082766953555-cd3c3lraeon30oemo9c8pko5c5r3qmra.apps.googleusercontent.com",
              "client_type": 3
            }
          ]
        }
      }
    }
  ],
  "configuration_version": "1"
}